Avery Fonda - DANL Project
…
1 Introduction

About this project 👏

Our mission as AGK Real Estate is to figure out housing prices in NYC within different neighborhoods, and boroughs. This is relevant because we need to find the cost of housing to be able to make it more affordable for those living in NYC. The prices of homes today are on the rise, because of the pandemic and inflation and it is our mission to make it so everyone in NYC can have affordable living.

As a real estate agency it is our job to provide homes that our clients will love at a low price.

2 Data

nyc_housing_sales <- read_csv("https://bcdanl.github.io/data/nyc_housing_sales_2006-2023.csv")

print(nyc_housing_sales)

# A tibble: 200,913 × 22
    year month   day borough     neighborhood building_class_categ…¹ block   lot
   <dbl> <dbl> <dbl> <chr>       <chr>        <chr>                  <dbl> <dbl>
 1  2007     1     1 Staten Isl… ARDEN HEIGH… 01 ONE FAMILY DWELLIN…  5726    50
 2  2007     1     1 Staten Isl… TODT HILL    01 ONE FAMILY DWELLIN…   864     1
 3  2007     1     2 Brooklyn    MARINE PARK  01 ONE FAMILY DWELLIN…  7708    61
 4  2007     1     2 Brooklyn    MARINE PARK  01 ONE FAMILY DWELLIN…  8499    15
 5  2007     1     2 Brooklyn    MIDWOOD      01 ONE FAMILY DWELLIN…  7589    70
 6  2007     1     2 Queens      CAMBRIA HEI… 01 ONE FAMILY DWELLIN… 12766    80
 7  2007     1     2 Queens      FAR ROCKAWAY 01 ONE FAMILY DWELLIN… 15598   592
 8  2007     1     2 Queens      FLUSHING-NO… 01 ONE FAMILY DWELLIN…  5704    11
 9  2007     1     2 Queens      FLUSHING-SO… 01 ONE FAMILY DWELLIN…  6686     9
10  2007     1     2 Queens      FLUSHING-SO… 01 ONE FAMILY DWELLIN…  6975    28
# ℹ 200,903 more rows
# ℹ abbreviated name: ¹​building_class_category
# ℹ 14 more variables: building_class_at_present <chr>, address <chr>,
#   apartment_number <lgl>, zip_code <dbl>, residential_units <dbl>,
#   commercial_units <dbl>, total_units <dbl>, land_square_feet <dbl>,
#   gross_square_feet <dbl>, year_built <dbl>, tax_class_at_time_of_sale <dbl>,
#   building_class_at_time_of_sale <chr>, sale_price <dbl>, sale_date <date>
…
5 What is the average housing price for each neighborhood in the Queens borough?

borough_name <- "Queens"
borough_data <- nyc_housing_sales %>%
  filter(borough == borough_name)

neighborhood_avg_price <- borough_data %>%
  group_by(neighborhood) %>%
  summarize(avg_price = mean(sale_price))

print(neighborhood_avg_price)

# A tibble: 59 × 2
   neighborhood       avg_price
   <chr>                  <dbl>
 1 AIRPORT LA GUARDIA   694702.
 2 ARVERNE              319446.
 3 ASTORIA             1075393.
 4 BAYSIDE              787965.
 5 BEECHHURST           956192.
 6 BELLE HARBOR         847342.
 7 BELLEROSE            541771.
 8 BRIARWOOD            600287.
 9 BROAD CHANNEL        330752.
10 CAMBRIA HEIGHTS      405349.
# ℹ 49 more rows
…
# A tibble: 1 × 1
  total_units_1925
             <dbl>
1            24273

8 Which zipcode in NYC has the most housing?

nyc_housing_sales %>%
  group_by(zip_code) %>%
  count() %>%
  arrange(desc(n))

# A tibble: 172 × 2
# Groups:   zip_code [172]
   zip_code     n
      <dbl> <int>
 1    10312  9023
 2    10314  8036
 3    10306  7979
 4    11234  5900
 5    11434  5230
 6    10305  4552
 7    11412  4525
 8    11413  4043
 9    10304  3957
10    10309  3871
# ℹ 162 more rows
…
